{
    "data": [
        {
            "subject": "ComfyUI-Manager",
            "question": "What kind of nodes can be created through the ComfyUI-Manager extension?",
            "answer": "The ComfyUI-Manager extension allows for the creation of custom nodes that can extend the functionality of ComfyUI. These nodes can be designed to generate various types of output, such as images and videos."
        },
        {
            "subject": "ComfyUI-Manager",
            "question": "How can the ComfyUI-Manager extension be utilized for fine-tuning a language model?",
            "answer": "The ComfyUI-Manager extension can be utilized for fine-tuning a language model by designing custom nodes that generate output related to the task at hand. For example, nodes could be created to generate descriptions of images or to provide recommendations based on a given dataset."
        },
        {
            "subject": "ComfyUI-Manager",
            "question": "Can the ComfyUI-Manager extension support different types of input data?",
            "answer": "Yes, the ComfyUI-Manager extension can support different types of input data, including text, images, and videos. This flexibility allows for a wide range of applications and fine-tuning scenarios."
        },
        {
            "subject": "ComfyUI-Manager",
            "question": "How does the ComfyUI-Manager extension manage the workflow of custom nodes?",
            "answer": "The ComfyUI-Manager extension manages the workflow of custom nodes through a user-friendly interface. It allows users to drag and drop nodes into a canvas, connect nodes through wires, and configure node properties."
        },
        {
            "subject": "ComfyUI-Manager",
            "question": "What are the advantages of using the ComfyUI-Manager extension for fine-tuning?",
            "answer": "The ComfyUI-Manager extension offers several advantages for fine-tuning a language model, including ease of use, flexibility in node design, and support for various input data types. Additionally, it provides a seamless workflow by managing node configuration and connections."
        },
        {
            "subject": "ComfyUI-Manager",
            "question": "Can the ComfyUI-Manager extension handle complex workflows with many nodes?",
            "answer": "Yes, the ComfyUI-Manager extension is designed to handle complex workflows with many nodes. It provides a scalable and modular architecture that allows for the addition of new nodes and the modification of existing ones without disrupting the workflow."
        },
        {
            "subject": "ComfyUI-Manager",
            "question": "How does the ComfyUI-Manager extension ensure the stability of the diffusion models used in custom nodes?",
            "answer": "The ComfyUI-Manager extension ensures the stability of the diffusion models used in custom nodes by providing robust error handling and debugging tools. It also includes features for monitoring model performance and optimizing resource usage."
        },
        {
            "subject": "ComfyUI-Manager",
            "question": "What are some common use cases for nodes created with the ComfyUI-Manager extension?",
            "answer": "Nodes created with the ComfyUI-Manager extension can be used for a variety of tasks, including image generation, video production, data processing, and more. Some common use cases include generating custom graphics for social media posts, creating training datasets for machine learning models, and designing visual interfaces for user applications."
        }
    ],
    "meta": {
        "total_count": 15,
        "per_page": 10,
        "current_page": 1,
        "total_pages": 2,
        "prev_page": null,
        "next_page": null
    }
}